OFF
525 1046 0
-10.9998 -6.18895 9.89595
-11 -6.14851 2.96
-10.9959 8.48052 2.95156
-10.9998 8.64009 9.89766
-49.8286 -11.6462 -2.95
-49.8286 -11.6462 -4.55
0.407143 -9.49127 -4.55
0.407143 -9.49127 2.95
-69.4643 -12.4885 -2.95
-69.4643 -12.4885 2.95
-49.8286 -11.6462 5.9
-49.8286 -11.6462 2.96
-14.8286 -10.1448 2.96
-14.8286 -10.1448 5.9
-54 -7.64989 -4.55
-54 -7.64989 -2.95
-54 11.8251 -2.95
-54 11.8251 -4.55
-11.231 9.99051 -4.55
-11.231 9.99051 2.95
0.407143 9.49127 2.95
0.407143 9.49127 -4.55
-50.7462 -11.5797 -2.95
-53.5823 -9.42943 -2.95
-53.081 -10.2009 -2.95
-53.8942 -8.56384 -2.95
-52.4166 -10.8374 -2.95
-51.6244 -11.3052 -2.95
-60.5235 3.19302 -2.95
-61.4314 5.15554 -2.95
-62.74 6.877 -2.95
-68.3822 -9.86827 -2.95
-66.2986 -9.28977 -2.95
-61.4314 -5.15554 -2.95
-60.5235 -3.19302 -2.95
-62.74 -6.877 -2.95
-64.3881 -8.27689 -2.95
-60.0586 -1.08119 -2.95
-60 0 -2.95
-60.0586 1.08119 -2.95
-82.4437 -1.18474 -2.95
-80 0 -2.95
-79.7662 -2.1497 -2.95
-82.4437 1.18474 -2.95
-79.7662 2.1497 -2.95
-81.9966 3.51165 -2.95
-79.0758 4.19889 -2.95
-81.1184 5.71237 -2.95
-77.9609 6.05174 -2.95
-79.8407 7.70784 -2.95
-76.4739 7.62162 -2.95
-78.2094 9.42634 -2.95
-74.6841 8.83512 -2.95
-76.2831 10.8061 -2.95
-72.6753 9.6355 -2.95
-74.1311 11.7976 -2.95
-70.5414 9.98533 -2.95
-71.8306 12.3652 -2.95
-68.3822 9.86827 -2.95
-69.4643 12.4885 -2.95
-66.2986 9.28977 -2.95
-64.3881 8.27689 -2.95
-70.5414 -9.98533 -2.95
-71.8306 -12.3652 -2.95
-72.6753 -9.6355 -2.95
-74.1311 -11.7976 -2.95
-74.6841 -8.83512 -2.95
-76.2831 -10.8061 -2.95
-76.4739 -7.62162 -2.95
-78.2094 -9.42634 -2.95
-77.9609 -6.05174 -2.95
-79.8407 -7.70784 -2.95
-79.0758 -4.19889 -2.95
-81.1184 -5.71237 -2.95
-81.9966 -3.51165 -2.95
-3.53553 3.53553 2.95
-2.5 4.33013 2.95
-1.2941 -4.82963 2.95
-60 0 2.95
0 -5 2.95
-2.5 -4.33013 2.95
-3.53553 -3.53553 2.95
-4.33013 -2.5 2.95
4.33013 -2.5 2.95
3.53553 -3.53553 2.95
7.53497 -5.7857 2.95
8.60905 -4.01675 2.95
4.82963 -1.2941 2.95
9.27459 -2.05719 2.95
5 0 2.95
9.5 0 2.95
4.82963 1.2941 2.95
9.27459 2.05719 2.95
4.33013 2.5 2.95
-70.5414 9.98533 2.95
-68.3822 9.86827 2.95
-51.455 10.2146 2.95311
-66.2986 9.28977 2.95
-64.3881 8.27689 2.95
-62.74 6.877 2.95
-61.4314 5.15554 2.95
-60.5235 3.19302 2.95
-60.0586 1.08119 2.95
-4.82963 -1.2941 2.95
-5 0 2.95
-4.82963 1.2941 2.95
1.2941 -4.82963 2.95
2.45278 -9.1779 2.95
2.5 -4.33013 2.95
4.38202 -8.42899 2.95
6.10331 -7.28008 2.95
-60.5235 -3.19302 2.95
-61.4314 -5.15554 2.95
-1.2941 4.82963 2.95
0 5 2.95
2.45278 9.1779 2.95
1.2941 4.82963 2.95
4.38202 8.42899 2.95
2.5 4.33013 2.95
6.10331 7.28008 2.95
3.53553 3.53553 2.95
7.53497 5.7857 2.95
8.60905 4.01675 2.95
-11.129 9.65845 2.95
-4.33013 2.5 2.95
-60.0586 -1.08119 2.95
-81.9966 3.51165 2.95
-80 0 2.95
-79.7662 2.1497 2.95
-81.1184 5.71237 2.95
-79.0758 4.19889 2.95
-79.8407 7.70784 2.95
-77.9609 6.05174 2.95
-78.2094 9.42634 2.95
-76.4739 7.62162 2.95
-76.2831 10.8061 2.95
-74.6841 8.83512 2.95
-74.1311 11.7976 2.95
-72.6753 9.6355 2.95
-71.8306 12.3652 2.95
-69.4643 12.4885 2.95
-49.0344 11.6121 2.95
-62.74 -6.877 2.95
-64.3881 -8.27689 2.95
-82.4437 1.18474 2.95
-82.4437 -1.18474 2.95
-79.7662 -2.1497 2.95
-81.9966 -3.51165 2.95
-79.0758 -4.19889 2.95
-81.1184 -5.71237 2.95
-77.9609 -6.05174 2.95
-79.8407 -7.70784 2.95
-76.4739 -7.62162 2.95
-78.2094 -9.42634 2.95
-74.6841 -8.83512 2.95
-76.2831 -10.8061 2.95
-72.6753 -9.6355 2.95
-74.1311 -11.7976 2.95
-70.5414 -9.98533 2.95
-71.8306 -12.3652 2.95
-68.3822 -9.86827 2.95
-66.2986 -9.28977 2.95
-14.7284 -10.1395 -5.80054
-49.8286 -11.6462 -4.56
-50.183 -11.6484 -6.05499
-14.8286 -10.1448 -4.56
2.45278 -9.1779 -4.55
4.38202 -8.42899 -4.55
6.10331 -7.28008 -4.55
7.53497 -5.7857 -4.55
8.60905 -4.01675 -4.55
9.27459 -2.05719 -4.55
9.5 0 -4.55
9.27459 2.05719 -4.55
8.60905 4.01675 -4.55
7.53497 5.7857 -4.55
6.10331 7.28008 -4.55
4.38202 8.42899 -4.55
2.45278 9.1779 -4.55
-49.0344 11.6121 -4.55
-54 6.43583 -4.56
-54 6.43583 -9.7
-53.9977 -7.81218 -9.70021
-54 -7.64989 -4.56
-11.129 9.65845 -4.55
-51.455 10.2146 -4.55311
-4.82963 -1.2941 -4.55
-4.33013 -2.5 -4.55
1.2941 4.82963 -4.55
0 5 -4.55
-10.996 8.48043 -4.55154
-1.2941 4.82963 -4.55
-2.5 4.33013 -4.55
3.53553 3.53553 -4.55
-51.6244 -11.3052 -4.55
-52.4166 -10.8374 -4.55
-50.7462 -11.5797 -4.55
-53.081 -10.2009 -4.55
-53.5823 -9.42943 -4.55
-53.8942 -8.56384 -4.55
-5 0 -4.55
-4.82963 1.2941 -4.55
-4.33013 2.5 -4.55
-3.53553 3.53553 -4.55
-3.53553 -3.53553 -4.55
-2.5 -4.33013 -4.55
-1.2941 -4.82963 -4.55
0 -5 -4.55
1.2941 -4.82963 -4.55
2.5 -4.33013 -4.55
3.53553 -3.53553 -4.55
4.33013 -2.5 -4.55
4.33013 2.5 -4.55
4.82963 1.2941 -4.55
5 0 -4.55
4.82963 -1.2941 -4.55
2.5 4.33013 -4.55
-72.6753 -9.6355 10.5
-70.5414 -9.98533 10.5
-68.3822 -9.86827 10.5
-66.2986 -9.28977 10.5
-74.6841 -8.83512 10.5
-64.3881 -8.27689 10.5
-76.4739 -7.62162 10.5
-62.74 -6.877 10.5
-77.9609 -6.05174 10.5
-61.4314 -5.15554 10.5
-79.0758 -4.19889 10.5
-60.5235 -3.19302 10.5
-79.7662 -2.1497 10.5
-60.0586 -1.08119 10.5
-80 0 10.5
-60 0 10.5
-60.0586 1.08119 10.5
-79.7662 2.1497 10.5
-60.5235 3.19302 10.5
-79.0758 4.19889 10.5
-61.4314 5.15554 10.5
-77.9609 6.05174 10.5
-62.74 6.877 10.5
-76.4739 7.62162 10.5
-64.3881 8.27689 10.5
-74.6841 8.83512 10.5
-66.2986 9.28977 10.5
-72.6753 9.6355 10.5
-68.3822 9.86827 10.5
-70.5414 9.98533 10.5
-60 0 -10.5
-60.0586 -1.08119 -10.5
-60.0586 1.08119 -10.5
-60.5235 3.19302 -10.5
-61.4314 5.15554 -10.5
-62.74 6.877 -10.5
-64.3881 8.27689 -10.5
-66.2986 9.28977 -10.5
-68.3822 9.86827 -10.5
-70.5414 9.98533 -10.5
-72.6753 9.6355 -10.5
-74.6841 8.83512 -10.5
-76.4739 7.62162 -10.5
-77.9609 6.05174 -10.5
-79.0758 4.19889 -10.5
-79.7662 2.1497 -10.5
-80 0 -10.5
-79.7662 -2.1497 -10.5
-79.0758 -4.19889 -10.5
-77.9609 -6.05174 -10.5
-76.4739 -7.62162 -10.5
-74.6841 -8.83512 -10.5
-72.6753 -9.6355 -10.5
-70.5414 -9.98533 -10.5
-68.3822 -9.86827 -10.5
-66.2986 -9.28977 -10.5
-64.3881 -8.27689 -10.5
-62.74 -6.877 -10.5
-61.4314 -5.15554 -10.5
-60.5235 -3.19302 -10.5
-11 -6.14851 -4.56
-10.9998 8.691 -9.69594
-10.9998 -6.13887 -9.69765
-14.8286 12.6471 -5.7
-43.8368 13.8915 5.9
-14.7282 12.6418 6.00053
-43.8368 13.8915 -5.7
-46.0069 13.3599 -7.84509
-46.0067 13.36 8.0448
-48.409 11.9732 -9.22651
-49.9532 11.0816 -9.59014
-52 9.89993 2.96
-51.9404 9.93743 9.90349
-49.817 11.1603 9.76907
-48.2856 12.0444 9.38459
-46.962 12.8086 8.77187
-52 9.89993 -4.56
-51.9248 9.94635 -9.70308
-47.0641 12.7497 -8.63175
-54 6.43583 9.9
-54 -7.64989 2.96
-53.9913 -7.98078 9.89912
-54 6.43583 2.96
-15.4142 -2.58579 9.9
-48.0009 -0.263191 9.89974
-15.8629 -3.22836 9.89974
-14.7716 -2.1371 9.89974
-48.2679 -1 9.9
-15.8629 -4.77164 9.89974
-16 -4 9.9
-12.5858 -5.41421 9.9
-12.1371 -4.77164 9.89974
-13.2284 -5.8629 9.89974
-15.4142 -5.41421 9.9
-14.7716 -5.8629 9.89974
-14 -6 9.9
-51.4142 -1.41421 9.9
-51.8629 -0.771641 9.89974
-52 0 9.9
-51.8629 0.771643 9.89974
-12.1371 -3.22836 9.89974
-12 -4 9.9
-48.7725 -1.59971 9.89974
-49.7368 -1.99914 9.89974
-50.7716 -1.8629 9.89974
-48.1371 0.771643 9.89974
-14 -2 9.9
-13.2284 -2.1371 9.89974
-12.5858 -2.58579 9.9
-52.8284 9.26425 9.9
-50.7716 1.86291 9.89974
-49.7368 1.99914 9.89974
-51.4142 1.41421 9.9
-53.8637 7.4711 9.9
-53.4641 8.43583 9.9
-48.7725 1.59972 9.89974
-52.6765 9.40841 -9.7
-53.2361 8.78697 -9.7
-53.9126 7.26747 -9.7
-53.6542 8.06277 -9.7
-52.6765 9.40841 -4.56
-53.9126 7.26747 -4.56
-53.6542 8.06277 -4.56
-53.2361 8.78697 -4.56
-53.8942 -8.56384 -4.56
-53.5823 -9.42943 -4.56
-13.8274 -9.97277 -4.56
-52.4166 -10.8374 -4.56
-51.6244 -11.3052 -4.56
-50.7462 -11.5797 -4.56
-53.081 -10.2009 -4.56
-12.1116 -8.91566 -4.56
-11.5077 -8.0988 -4.56
-11.129 -7.15615 -4.56
-12.9018 -9.55404 -4.56
-53.8942 -8.56384 2.96
-53.5823 -9.42943 2.96
-13.8274 -9.97277 2.96
-12.9018 -9.55404 2.96
-52.8284 9.26425 2.96
-53.8637 7.4711 2.96
-53.4641 8.43583 2.96
-52.4166 -10.8374 2.96
-53.081 -10.2009 2.96
-51.6244 -11.3052 2.96
-50.7462 -11.5797 2.96
-11.129 -7.15615 2.96
-11.5077 -8.0988 2.96
-12.1116 -8.91566 2.96
-13.6825 -9.92383 7.05918
-12.6427 -9.37802 8.11938
-11.3383 -7.75596 9.49025
-11.8254 -8.57951 8.9691
-11.0846 -6.96524 9.77702
-53.8319 -8.7972 9.77757
-50.9867 -11.5243 7.05811
-52.0791 -11.0664 8.12458
-52.9598 -10.3407 8.97222
-53.514 -9.56101 9.49259
-11.0849 9.4686 -9.5767
-11.3393 10.2602 -9.28935
-11.8189 11.0764 -8.7738
-11.0739 9.40982 9.79074
-11.3072 10.188 9.52355
-11.7616 10.9979 9.03358
-12.5521 11.8145 8.20942
-12.6408 11.8802 -7.91954
-13.5833 12.3907 7.15743
-13.6757 12.4252 -6.86137
-44.9165 13.7906 6.97438
-45.0038 13.7692 -6.86108
-11.0748 -6.91024 -9.58991
-11.3129 -7.69396 -9.3192
-11.7786 -8.51479 -8.82006
-12.5677 -9.3195 -7.99945
-13.5993 -9.89097 -6.95039
-53.8946 -8.5623 -9.63007
-53.1646 -10.0964 -8.96663
-53.6351 -9.31907 -9.40328
-52.396 -10.8525 -8.23134
-51.3642 -11.409 -7.22572
-1.2941 -4.82963 -7.65
-2.5 -4.33013 -7.65
0 -5 -7.65
-1.2941 4.82963 -7.65
0 5 -7.65
4.33013 -2.5 -7.65
-3.53553 -3.53553 -7.65
-4.33013 -2.5 -7.65
-4.82963 -1.2941 -7.65
-5 0 -7.65
-4.82963 1.2941 -7.65
4.82963 -1.2941 -7.65
4.82963 1.2941 -7.65
5 0 -7.65
-3.53553 3.53553 -7.65
-2.5 4.33013 -7.65
-4.33013 2.5 -7.65
3.53553 -3.53553 -7.65
2.5 -4.33013 -7.65
3.53553 3.53553 -7.65
4.33013 2.5 -7.65
2.5 4.33013 -7.65
1.2941 4.82963 -7.65
1.2941 -4.82963 -7.65
5 0 9.97
4.82963 -1.2941 9.97
4.33013 -2.5 9.97
3.53553 -3.53553 9.97
2.5 -4.33013 9.97
1.2941 -4.82963 9.97
0 -5 9.97
-1.2941 -4.82963 9.97
-2.5 -4.33013 9.97
-3.53553 -3.53553 9.97
-4.33013 -2.5 9.97
-4.82963 -1.2941 9.97
-5 0 9.97
-4.82963 1.2941 9.97
-4.33013 2.5 9.97
-3.53553 3.53553 9.97
-2.5 4.33013 9.97
-1.2941 4.82963 9.97
0 5 9.97
1.2941 4.82963 9.97
2.5 4.33013 9.97
3.53553 3.53553 9.97
4.33013 2.5 9.97
4.82963 1.2941 9.97
-48.8339 1.51966 9.79967
-48.2303 0.733039 9.79967
-49.75 1.8991 9.79967
-50.733 1.76969 9.79967
-51.3435 1.3435 9.8
-51.7697 0.733023 9.79967
-51.9 0 9.8
-51.7697 -0.733022 9.79967
-51.3435 -1.3435 9.8
-50.733 -1.76968 9.79967
-50 -1.9 9.8
-49.5082 -1.83526 9.8
-48.8339 -1.51966 9.79967
-48.3545 -0.95 9.8
-48.1009 -0.250008 9.79967
-50.25 1.4 9.8
-49.75 1.4 9.8
-48.6 -0.25 9.8
-49.75 -0.25 9.8
-50.25 -1.4 9.8
-50.25 -0.25 9.8
-50.25 0.25 9.8
-49.75 0.25 9.8
-49.75 -1.4 9.8
-51.4 -0.25 9.8
-51.4 0.25 9.8
-48.6 0.25 9.8
-12.6565 -2.6565 9.8
-12.2303 -3.26697 9.79967
-13.267 -2.23032 9.79967
-14 -2.1 9.8
-14.733 -2.23032 9.79967
-15.3435 -2.6565 9.8
-15.7697 -3.26697 9.79967
-15.9 -4 9.8
-15.7697 -4.73303 9.79967
-15.3435 -5.3435 9.8
-14.733 -5.76968 9.79967
-14 -5.9 9.8
-13.267 -5.76968 9.79967
-12.6565 -5.3435 9.8
-12.2303 -4.73303 9.79967
-12.1 -4 9.8
-12.689 -4.55122 9.8
-12.5793 -4.06342 9.8
-13.7012 -3.81098 9.8
-15.311 -3.44878 9.8
-15.4207 -3.93658 9.8
-13.4488 -2.68902 9.8
-13.9366 -2.57927 9.8
-13.811 -4.29878 9.8
-14.189 -3.70122 9.8
-14.0634 -5.42073 9.8
-14.5512 -5.31098 9.8
-14.2988 -4.18902 9.8
-48.6262 0.223753 9.5
-48.6262 -0.223753 9.5
-49.7762 -0.223753 9.5
-49.7762 -1.37375 9.5
-50.2238 -1.37375 9.5
-50.2238 -0.223753 9.5
-51.3738 -0.223753 9.5
-51.3738 0.223753 9.5
-50.2238 0.223753 9.5
-50.2238 1.37375 9.5
-49.7762 1.37375 9.5
-49.7762 0.223753 9.5
-14.5199 -5.29113 9.5
-14.2674 -4.16918 9.5
-15.3894 -3.91674 9.5
-15.2911 -3.48015 9.5
-14.1692 -3.73259 9.5
-13.9167 -2.61064 9.5
-13.4801 -2.70887 9.5
-13.7326 -3.83082 9.5
-12.6106 -4.08326 9.5
-12.7089 -4.51985 9.5
-13.8308 -4.26741 9.5
-14.0833 -5.38936 9.5
3 0 1 2
3 3 0 2
3 4 5 6
3 4 6 7
3 8 4 7
3 9 8 7
3 10 11 12
3 10 12 13
3 14 15 16
3 17 14 16
3 18 19 20
3 21 18 20
3 8 22 4
3 8 23 24
3 8 25 23
3 8 24 26
3 8 26 27
3 8 27 22
3 28 29 16
3 29 30 16
3 8 31 32
3 33 34 15
3 33 15 25
3 35 33 25
3 8 32 25
3 32 36 25
3 36 35 25
3 34 37 15
3 37 38 15
3 15 38 16
3 38 39 16
3 39 28 16
3 40 41 42
3 40 43 41
3 41 43 44
3 43 45 44
3 44 45 46
3 45 47 46
3 46 47 48
3 47 49 48
3 48 49 50
3 49 51 50
3 50 51 52
3 51 53 52
3 52 53 54
3 53 55 54
3 54 55 56
3 55 57 56
3 56 57 58
3 57 59 58
3 58 59 60
3 60 59 16
3 61 60 16
3 30 61 16
3 8 62 31
3 63 62 8
3 63 64 62
3 65 64 63
3 65 66 64
3 67 66 65
3 67 68 66
3 69 68 67
3 69 70 68
3 69 71 70
3 71 72 70
3 71 73 72
3 73 42 72
3 73 74 42
3 74 40 42
3 19 75 76
3 77 78 79
3 80 78 77
3 81 78 80
3 82 78 81
3 83 84 85
3 83 85 86
3 87 83 86
3 87 86 88
3 89 87 88
3 89 88 90
3 91 89 90
3 92 91 90
3 93 91 92
3 19 76 20
3 94 95 96
3 95 97 96
3 97 98 96
3 98 99 96
3 99 100 96
3 96 100 2
3 100 101 2
3 101 102 2
3 103 78 82
3 104 78 103
3 78 104 105
3 79 7 106
3 106 7 107
3 106 107 108
3 108 107 109
3 84 108 109
3 84 109 110
3 84 110 85
3 111 112 7
3 76 113 20
3 113 114 20
3 20 114 115
3 114 116 115
3 115 116 117
3 116 118 117
3 117 118 119
3 118 120 119
3 119 120 121
3 120 93 121
3 121 93 122
3 122 93 92
3 19 123 75
3 75 123 2
3 124 75 2
3 105 124 2
3 102 105 2
3 102 78 105
3 79 78 7
3 78 125 7
3 125 111 7
3 126 127 128
3 129 126 128
3 129 128 130
3 131 129 130
3 131 130 132
3 133 131 132
3 133 132 134
3 133 134 135
3 135 134 136
3 135 136 137
3 137 136 138
3 137 138 139
3 139 138 94
3 139 94 140
3 140 94 96
3 141 140 96
3 112 142 7
3 142 143 7
3 143 9 7
3 126 144 127
3 144 145 127
3 127 145 146
3 145 147 146
3 146 147 148
3 147 149 148
3 148 149 150
3 149 151 150
3 150 151 152
3 151 153 152
3 152 153 154
3 153 155 154
3 154 155 156
3 155 157 156
3 156 157 158
3 157 159 158
3 158 159 160
3 159 9 160
3 160 9 161
3 161 9 143
3 59 57 140
3 57 139 140
3 57 55 139
3 55 137 139
3 55 53 137
3 53 135 137
3 53 51 135
3 51 133 135
3 51 49 133
3 49 131 133
3 49 47 131
3 47 129 131
3 47 45 129
3 45 126 129
3 45 43 126
3 43 144 126
3 43 40 144
3 40 145 144
3 145 40 74
3 145 74 147
3 147 74 73
3 147 73 149
3 149 73 71
3 149 71 151
3 151 71 69
3 151 69 153
3 153 69 67
3 153 67 155
3 155 67 65
3 155 65 157
3 157 65 63
3 157 63 159
3 159 63 8
3 159 8 9
3 162 163 164
3 165 163 162
3 7 6 166
3 7 166 107
3 107 166 167
3 107 167 109
3 109 167 168
3 109 168 110
3 110 168 169
3 110 169 85
3 85 169 170
3 85 170 86
3 86 170 171
3 86 171 88
3 88 171 172
3 88 172 90
3 172 173 90
3 173 92 90
3 173 174 92
3 174 122 92
3 174 175 122
3 175 121 122
3 175 176 121
3 176 119 121
3 176 177 119
3 177 117 119
3 177 178 117
3 178 115 117
3 178 21 115
3 21 20 115
3 59 140 16
3 16 140 141
3 17 16 141
3 179 17 141
3 180 181 182
3 183 180 182
3 184 18 21
3 17 179 185
3 14 17 185
3 5 186 187
3 188 189 190
3 189 191 190
3 191 192 190
3 193 176 175
3 194 195 196
3 195 197 196
3 196 197 5
3 197 198 5
3 5 198 186
3 198 199 186
3 199 200 186
3 199 14 200
3 200 14 201
3 201 14 185
3 202 201 185
3 202 185 190
3 203 202 190
3 192 203 190
3 5 187 204
3 5 204 205
3 5 205 6
3 184 21 190
3 205 206 6
3 206 207 6
3 6 207 166
3 207 208 166
3 166 208 167
3 208 209 167
3 167 209 168
3 209 210 168
3 168 210 169
3 210 211 169
3 212 193 175
3 212 175 174
3 213 212 174
3 213 174 173
3 214 213 173
3 214 173 172
3 215 214 172
3 171 215 172
3 211 215 171
3 170 211 171
3 169 211 170
3 193 177 176
3 193 216 177
3 216 178 177
3 188 178 216
3 188 21 178
3 21 188 190
3 217 218 219
3 217 219 220
3 221 217 220
3 221 220 222
3 223 221 222
3 223 222 224
3 225 223 224
3 225 224 226
3 227 225 226
3 227 226 228
3 229 227 228
3 229 228 230
3 231 229 230
3 231 230 232
3 233 231 232
3 234 231 233
3 235 234 233
3 236 234 235
3 237 236 235
3 238 236 237
3 239 238 237
3 240 238 239
3 241 240 239
3 242 240 241
3 243 242 241
3 244 242 243
3 245 244 243
3 246 244 245
3 78 233 232
3 125 78 232
3 102 233 78
3 102 101 233
3 101 235 233
3 101 100 235
3 100 237 235
3 100 99 237
3 99 239 237
3 99 98 239
3 98 241 239
3 98 97 241
3 97 243 241
3 97 95 243
3 95 245 243
3 95 94 245
3 94 246 245
3 94 138 246
3 138 244 246
3 138 136 244
3 136 242 244
3 136 134 242
3 134 240 242
3 134 132 240
3 132 238 240
3 132 130 238
3 130 236 238
3 130 128 236
3 128 234 236
3 128 127 234
3 127 231 234
3 231 127 146
3 231 146 229
3 229 146 148
3 229 148 227
3 227 148 150
3 227 150 225
3 225 150 152
3 225 152 223
3 223 152 154
3 223 154 221
3 221 154 156
3 221 156 217
3 217 156 158
3 217 158 218
3 218 158 160
3 218 160 219
3 219 160 161
3 219 161 220
3 220 161 143
3 220 143 222
3 222 143 142
3 222 142 224
3 224 142 112
3 224 112 226
3 226 112 111
3 226 111 228
3 228 111 125
3 228 125 230
3 230 125 232
3 247 39 38
3 248 247 38
3 249 39 247
3 249 250 39
3 250 28 39
3 250 251 28
3 251 29 28
3 251 252 29
3 252 30 29
3 252 253 30
3 253 61 30
3 253 254 61
3 254 60 61
3 254 255 60
3 255 58 60
3 255 256 58
3 256 56 58
3 256 257 56
3 257 54 56
3 257 258 54
3 258 52 54
3 258 259 52
3 259 50 52
3 259 260 50
3 260 48 50
3 260 261 48
3 261 46 48
3 261 262 46
3 262 44 46
3 262 263 44
3 263 41 44
3 41 263 264
3 41 264 42
3 42 264 265
3 42 265 72
3 72 265 266
3 72 266 70
3 70 266 267
3 70 267 68
3 68 267 268
3 68 268 66
3 66 268 269
3 66 269 64
3 64 269 270
3 64 270 62
3 62 270 271
3 62 271 31
3 31 271 272
3 31 272 32
3 32 272 273
3 32 273 36
3 36 273 274
3 36 274 35
3 35 274 275
3 35 275 33
3 33 275 276
3 33 276 34
3 34 276 248
3 34 248 37
3 37 248 38
3 263 249 247
3 263 262 249
3 262 250 249
3 262 261 250
3 261 251 250
3 261 260 251
3 260 252 251
3 260 259 252
3 259 253 252
3 259 258 253
3 258 254 253
3 258 257 254
3 257 255 254
3 257 256 255
3 248 263 247
3 265 263 248
3 264 263 265
3 276 265 248
3 275 265 276
3 274 265 275
3 273 265 274
3 272 265 273
3 271 265 272
3 267 266 268
3 266 265 268
3 268 265 269
3 269 265 271
3 270 269 271
3 277 278 190
3 277 279 278
3 280 281 282
3 283 281 280
3 284 179 285
3 286 287 185
3 96 288 289
3 290 96 289
3 290 291 96
3 179 141 285
3 285 141 96
3 292 285 96
3 291 292 96
3 293 185 294
3 185 287 294
3 295 179 284
3 179 295 185
3 295 286 185
3 296 297 298
3 299 297 296
3 300 301 302
3 301 300 303
3 301 304 305
3 306 301 305
3 301 306 302
3 307 0 308
3 0 307 309
3 310 298 311
3 298 310 305
3 312 0 309
3 0 312 298
3 298 312 311
3 298 313 314
3 296 298 314
3 315 296 314
3 296 315 316
3 0 3 317
3 318 0 317
3 0 318 308
3 304 319 305
3 319 298 305
3 298 319 320
3 321 298 320
3 313 298 321
3 301 3 322
3 323 301 303
3 323 3 301
3 3 323 324
3 325 3 324
3 3 325 317
3 289 326 327
3 289 327 328
3 329 296 316
3 296 329 327
3 330 296 327
3 331 330 327
3 326 331 327
3 332 289 328
3 3 289 332
3 3 332 322
3 182 181 279
3 278 279 294
3 279 333 294
3 181 333 279
3 181 334 333
3 181 335 334
3 335 336 334
3 180 277 190
3 185 293 190
3 293 337 190
3 338 180 339
3 339 180 190
3 340 339 190
3 337 340 190
3 180 183 163
3 183 341 163
3 341 342 163
3 180 163 277
3 163 165 277
3 165 343 277
3 344 345 346
3 344 346 163
3 347 344 163
3 342 347 163
3 348 349 350
3 348 350 277
3 351 348 277
3 343 351 277
3 352 297 353
3 354 12 355
3 1 297 2
3 297 299 2
3 288 96 2
3 299 288 2
3 299 356 288
3 299 357 356
3 357 358 356
3 359 360 361
3 361 360 11
3 362 361 11
3 363 364 1
3 360 353 11
3 353 297 11
3 11 297 12
3 12 297 1
3 355 12 1
3 364 355 1
3 365 355 364
3 13 12 354
3 366 355 367
3 354 355 366
3 13 354 366
3 355 365 367
3 364 368 369
3 365 364 369
3 367 365 369
3 364 363 368
3 370 1 0
3 363 1 370
3 363 370 368
3 371 0 298
3 366 367 372
3 372 367 373
3 367 369 373
3 369 374 373
3 368 374 369
3 375 374 368
3 370 375 368
3 371 375 370
3 371 370 0
3 10 13 372
3 13 366 372
3 297 352 298
3 352 371 298
3 371 352 375
3 352 353 375
3 353 360 374
3 375 353 374
3 374 360 373
3 360 359 373
3 361 372 373
3 359 361 373
3 361 362 372
3 362 11 372
3 11 10 372
3 288 356 289
3 356 326 289
3 356 358 326
3 358 331 326
3 358 357 331
3 357 330 331
3 357 299 330
3 299 296 330
3 181 180 338
3 335 181 338
3 335 338 339
3 336 335 339
3 336 339 340
3 334 336 340
3 334 340 337
3 333 334 337
3 333 337 293
3 333 293 294
3 376 184 190
3 278 376 190
3 184 376 377
3 18 184 377
3 18 377 378
3 19 18 378
3 379 3 2
3 380 123 381
3 123 380 379
3 123 379 2
3 123 19 381
3 381 19 378
3 381 378 382
3 378 383 382
3 383 384 382
3 385 384 383
3 385 282 384
3 385 280 282
3 292 291 381
3 3 290 289
3 290 3 379
3 291 290 379
3 291 380 381
3 380 291 379
3 292 381 382
3 285 292 382
3 386 285 382
3 384 386 382
3 281 386 384
3 282 281 384
3 287 376 278
3 287 278 294
3 287 286 376
3 376 286 377
3 286 295 377
3 377 295 378
3 295 284 378
3 284 383 378
3 283 280 387
3 280 385 387
3 387 385 383
3 284 387 383
3 387 284 285
3 387 285 386
3 281 387 386
3 281 283 387
3 279 277 388
3 277 350 388
3 388 350 389
3 389 349 390
3 350 349 389
3 349 348 390
3 390 348 391
3 351 392 391
3 348 351 391
3 351 343 392
3 343 162 392
3 343 165 162
3 393 182 279
3 394 395 388
3 393 279 388
3 395 393 388
3 396 394 389
3 394 388 389
3 396 389 390
3 396 390 397
3 390 391 397
3 391 392 397
3 392 164 397
3 162 164 392
3 163 346 164
3 346 345 397
3 164 346 397
3 345 344 397
3 344 396 397
3 344 347 396
3 342 395 394
3 347 342 394
3 347 394 396
3 342 341 395
3 395 341 393
3 393 183 182
3 341 183 393
3 15 14 199
3 15 199 25
3 25 199 198
3 25 198 23
3 23 198 197
3 23 197 24
3 24 197 195
3 24 195 26
3 26 195 194
3 26 194 27
3 27 194 196
3 27 196 22
3 22 196 5
3 22 5 4
3 398 399 400
3 401 402 403
3 404 405 399
3 405 406 399
3 406 407 408
3 409 410 411
3 409 403 410
3 412 413 401
3 412 401 403
3 414 412 403
3 415 414 403
3 416 414 415
3 417 418 410
3 403 417 410
3 419 417 403
3 402 419 403
3 402 420 419
3 406 408 399
3 408 414 399
3 399 414 400
3 400 414 416
3 421 400 416
3 411 410 214
3 215 411 214
3 215 409 411
3 211 409 215
3 211 403 409
3 210 403 211
3 210 415 403
3 209 415 210
3 209 416 415
3 208 416 209
3 208 421 416
3 207 421 208
3 207 400 421
3 206 400 207
3 206 398 400
3 205 398 206
3 205 399 398
3 204 399 205
3 204 404 399
3 187 404 204
3 187 405 404
3 186 405 187
3 186 406 405
3 200 406 186
3 200 407 406
3 407 200 201
3 408 407 201
3 408 201 202
3 414 408 202
3 414 202 203
3 412 414 203
3 412 203 192
3 413 412 192
3 413 192 191
3 401 413 191
3 401 191 189
3 402 401 189
3 402 189 188
3 420 402 188
3 420 188 216
3 419 420 216
3 419 216 193
3 417 419 193
3 417 193 212
3 418 417 212
3 418 212 213
3 410 418 213
3 410 213 214
3 89 91 422
3 423 89 422
3 423 87 89
3 424 87 423
3 424 83 87
3 425 83 424
3 425 84 83
3 426 84 425
3 426 108 84
3 427 108 426
3 427 106 108
3 428 106 427
3 428 79 106
3 429 79 428
3 429 77 79
3 430 77 429
3 430 80 77
3 431 80 430
3 431 81 80
3 432 81 431
3 432 82 81
3 433 82 432
3 433 103 82
3 434 103 433
3 434 104 103
3 104 434 435
3 105 104 435
3 105 435 436
3 124 105 436
3 124 436 437
3 75 124 437
3 75 437 438
3 76 75 438
3 76 438 439
3 113 76 439
3 113 439 440
3 114 113 440
3 114 440 441
3 116 114 441
3 116 441 442
3 118 116 442
3 118 442 443
3 120 118 443
3 120 443 444
3 93 120 444
3 93 444 445
3 91 93 445
3 91 445 422
3 426 425 424
3 445 439 422
3 439 428 427
3 439 430 428
3 430 429 428
3 424 423 422
3 439 424 422
3 439 426 424
3 439 427 426
3 441 440 442
3 440 439 442
3 442 439 443
3 443 439 445
3 444 443 445
3 438 437 439
3 437 436 439
3 436 435 439
3 432 431 430
3 432 430 439
3 433 432 439
3 435 433 439
3 434 433 435
3 322 446 447
3 322 332 446
3 446 332 448
3 332 328 448
3 328 449 448
3 328 327 449
3 327 450 449
3 329 450 327
3 450 329 451
3 329 316 451
3 316 452 451
3 315 452 316
3 452 315 453
3 315 314 453
3 314 454 453
3 313 454 314
3 454 313 455
3 313 321 455
3 321 456 455
3 456 321 320
3 457 456 320
3 457 320 458
3 320 319 458
3 319 459 458
3 304 459 319
3 459 304 460
3 304 301 460
3 460 301 447
3 301 322 447
3 461 462 448
3 463 464 459
3 465 466 455
3 449 461 448
3 467 461 449
3 462 468 446
3 462 446 448
3 459 464 458
3 464 457 458
3 464 469 457
3 469 456 457
3 465 456 469
3 456 465 455
3 454 455 453
3 455 466 453
3 466 470 453
3 470 452 453
3 452 470 471
3 450 467 449
3 467 450 451
3 471 467 451
3 452 471 451
3 446 468 447
3 468 472 447
3 472 460 447
3 472 463 460
3 463 459 460
3 317 473 474
3 325 473 317
3 473 325 475
3 325 324 475
3 324 476 475
3 323 476 324
3 476 323 477
3 323 303 477
3 303 478 477
3 300 478 303
3 478 300 479
3 300 302 479
3 302 480 479
3 306 480 302
3 480 306 481
3 306 305 481
3 305 482 481
3 310 482 305
3 482 310 483
3 310 311 483
3 311 484 483
3 312 484 311
3 484 312 485
3 312 309 485
3 309 486 485
3 307 486 309
3 486 307 487
3 307 308 487
3 308 488 487
3 318 488 308
3 488 318 474
3 318 317 474
3 488 489 487
3 490 489 488
3 490 488 474
3 491 490 474
3 480 492 479
3 480 493 492
3 476 494 475
3 476 495 494
3 473 491 474
3 494 491 473
3 494 473 475
3 489 486 487
3 489 496 486
3 486 496 485
3 495 476 477
3 497 495 477
3 478 497 477
3 478 492 497
3 492 478 479
3 496 498 485
3 498 484 485
3 498 499 484
3 484 499 483
3 493 480 481
3 500 493 481
3 482 500 481
3 482 499 500
3 499 482 483
3 501 502 472
3 502 463 472
3 502 503 463
3 503 464 463
3 503 504 464
3 504 469 464
3 504 505 469
3 505 465 469
3 465 505 506
3 466 465 506
3 507 466 506
3 507 470 466
3 470 507 508
3 471 470 508
3 471 508 509
3 467 471 509
3 467 509 510
3 461 467 510
3 461 510 511
3 461 511 462
3 511 512 462
3 512 468 462
3 468 512 501
3 468 501 472
3 505 504 503
3 506 505 503
3 510 512 511
3 510 509 512
3 508 507 509
3 507 506 509
3 509 506 512
3 506 503 512
3 512 503 501
3 503 502 501
3 499 513 514
3 500 499 514
3 515 500 514
3 515 493 500
3 493 515 516
3 492 493 516
3 492 516 517
3 497 492 517
3 497 517 518
3 495 497 518
3 495 518 519
3 495 519 494
3 519 520 494
3 520 491 494
3 491 520 521
3 491 521 490
3 521 522 490
3 522 489 490
3 522 523 489
3 523 496 489
3 523 524 496
3 524 498 496
3 524 513 498
3 513 499 498
3 523 522 521
3 520 523 521
3 516 515 517
3 515 514 517
3 514 513 524
3 514 524 523
3 517 514 523
3 517 523 520
3 518 517 520
3 518 520 519
