####
#
# OBJ File Generated by Meshlab
#
####
# Object Necklace_cap.obj
#
# Vertices: 144
# Faces: 288
#
####
vn 3.008581 0.806149 -2.879778
v 0.241482 0.064704 0.000000 0.749020 0.749020 0.749020
vn 3.114719 -0.000000 2.879807
v 0.250000 0.000000 0.700000 0.749020 0.749020 0.749020
vn 3.008581 -0.806149 2.879778
v 0.241482 -0.064704 0.700000 0.749020 0.749020 0.749020
vn 3.114719 0.000000 -2.879807
v 0.250000 0.000000 0.000000 0.749020 0.749020 0.749020
vn 2.697408 -1.557383 -2.879791
v 0.216506 -0.125000 0.000000 0.749020 0.749020 0.749020
vn 1.557383 -2.697408 2.879792
v 0.125000 -0.216506 0.700000 0.749020 0.749020 0.749020
vn 0.000000 -3.114719 2.879807
v 0.000000 -0.250000 0.700000 0.749020 0.749020 0.749020
vn -2.202439 -2.202439 -2.879814
v -0.176776 -0.176776 0.000000 0.749020 0.749020 0.749020
vn -2.202440 -2.202440 2.879814
v -0.176776 -0.176776 0.700000 0.749020 0.749020 0.749020
vn -2.697408 -1.557383 -2.879791
v -0.216506 -0.125000 0.000000 0.749020 0.749020 0.749020
vn -3.008581 -0.806149 2.879778
v -0.241482 -0.064704 0.700000 0.749020 0.749020 0.749020
vn -3.008581 -0.806149 -2.879778
v -0.241482 -0.064704 0.000000 0.749020 0.749020 0.749020
vn -3.114719 0.000000 2.879807
v -0.250000 0.000000 0.700000 0.749020 0.749020 0.749020
vn -3.114719 -0.000000 -2.879807
v -0.250000 0.000000 0.000000 0.749020 0.749020 0.749020
vn -3.008581 0.806149 -2.879778
v -0.241482 0.064704 0.000000 0.749020 0.749020 0.749020
vn -2.697408 1.557383 2.879791
v -0.216506 0.125000 0.700000 0.749020 0.749020 0.749020
vn -2.697408 1.557383 -2.879791
v -0.216506 0.125000 0.000000 0.749020 0.749020 0.749020
vn -2.202439 2.202439 2.879814
v -0.176776 0.176776 0.700000 0.749020 0.749020 0.749020
vn -0.806149 3.008581 -2.879776
v -0.064704 0.241482 0.000000 0.749020 0.749020 0.749020
vn -1.557383 2.697408 -2.879791
v -0.125000 0.216506 0.000000 0.749020 0.749020 0.749020
vn -0.806149 3.008581 2.879777
v -0.064704 0.241482 0.700000 0.749020 0.749020 0.749020
vn 0.806149 3.008581 2.879778
v 0.064704 0.241482 0.700000 0.749020 0.749020 0.749020
vn 1.557383 2.697408 -2.879791
v 0.125000 0.216506 0.000000 0.749020 0.749020 0.749020
vn 2.697408 1.557383 2.879791
v 0.216506 0.125000 0.700000 0.749020 0.749020 0.749020
vn 2.202440 2.202440 2.879813
v 0.176776 0.176776 0.700000 0.749020 0.749020 0.749020
vn 3.114717 0.000000 -3.403385
v -0.026000 0.000000 0.000000 0.749020 0.749020 0.749020
vn 0.000000 3.114719 -2.879749
v 0.000000 0.250000 0.000000 0.749020 0.749020 0.749020
vn 1.557636 -2.697272 -3.403355
v -0.013000 0.022516 0.000000 0.749020 0.749020 0.749020
vn -0.000000 -3.114717 -3.403386
v 0.000000 0.026000 0.000000 0.749020 0.749020 0.749020
vn 0.806149 3.008581 -2.879771
v 0.064704 0.241482 0.000000 0.749020 0.749020 0.749020
vn -1.557635 -2.697271 -3.403355
v 0.013000 0.022516 0.000000 0.749020 0.749020 0.749020
vn -2.697271 -1.557635 -3.403355
v 0.022516 0.013000 0.000000 0.749020 0.749020 0.749020
vn -3.008514 -0.806318 -3.403515
v 0.025114 0.006730 0.000000 0.749020 0.749020 0.749020
vn -2.202440 2.202440 -2.879814
v -0.176776 0.176776 0.000000 0.749020 0.749020 0.749020
vn -1.557383 -2.697408 -2.879791
v -0.125000 -0.216506 0.000000 0.749020 0.749020 0.749020
vn -0.806149 -3.008581 -2.879778
v -0.064704 -0.241482 0.000000 0.749020 0.749020 0.749020
vn -0.000000 -3.114719 -2.879750
v 0.000000 -0.250000 0.000000 0.749020 0.749020 0.749020
vn -1.557636 2.697272 -3.403355
v 0.013000 -0.022516 0.000000 0.749020 0.749020 0.749020
vn -2.202460 2.202460 -3.403226
v 0.018384 -0.018384 0.000000 0.749020 0.749020 0.749020
vn -3.008513 0.806317 -3.403515
v 0.025114 -0.006730 0.000000 0.749020 0.749020 0.749020
vn 0.806149 -3.008581 -2.879773
v 0.064704 -0.241482 0.000000 0.749020 0.749020 0.749020
vn 1.557383 -2.697408 -2.879791
v 0.125000 -0.216506 0.000000 0.749020 0.749020 0.749020
vn 2.202440 -2.202440 -2.879814
v 0.176776 -0.176776 0.000000 0.749020 0.749020 0.749020
vn 2.202440 2.202439 -2.879814
v 0.176776 0.176776 0.000000 0.749020 0.749020 0.749020
vn 2.697408 1.557383 -2.879791
v 0.216506 0.125000 0.000000 0.749020 0.749020 0.749020
vn 3.008581 -0.806149 -2.879778
v 0.241482 -0.064704 0.000000 0.749020 0.749020 0.749020
vn 2.202460 -2.202460 -3.403226
v -0.018384 0.018384 0.000000 0.749020 0.749020 0.749020
vn 0.806317 -3.008513 -3.403515
v -0.006730 0.025114 0.000000 0.749020 0.749020 0.749020
vn 0.000000 -3.114717 3.403386
v 0.000000 0.026000 0.100000 0.749020 0.749020 0.749020
vn -0.806318 -3.008514 -3.403515
v 0.006730 0.025114 0.000000 0.749020 0.749020 0.749020
vn -1.557636 -2.697272 3.403355
v 0.013000 0.022516 0.100000 0.749020 0.749020 0.749020
vn -2.202460 -2.202460 3.403226
v 0.018384 0.018384 0.100000 0.749020 0.749020 0.749020
vn -2.202461 -2.202461 -3.403226
v 0.018384 0.018384 0.000000 0.749020 0.749020 0.749020
vn -3.008513 -0.806317 3.403515
v 0.025114 0.006730 0.100000 0.749020 0.749020 0.749020
vn -2.697272 -1.557636 3.403355
v 0.022516 0.013000 0.100000 0.749020 0.749020 0.749020
vn -3.114717 0.000000 -3.403386
v 0.026000 0.000000 0.000000 0.749020 0.749020 0.749020
vn -3.114717 0.000000 3.403386
v 0.026000 0.000000 0.100000 0.749020 0.749020 0.749020
vn -2.697272 1.557636 -3.403355
v 0.022516 -0.013000 0.000000 0.749020 0.749020 0.749020
vn -1.557635 2.697271 3.403355
v 0.013000 -0.022516 0.100000 0.749020 0.749020 0.749020
vn -0.806318 3.008514 3.403515
v 0.006730 -0.025114 0.100000 0.749020 0.749020 0.749020
vn 0.000000 3.114717 -3.403386
v 0.000000 -0.026000 0.000000 0.749020 0.749020 0.749020
vn -0.806317 3.008513 -3.403515
v 0.006730 -0.025114 0.000000 0.749020 0.749020 0.749020
vn 0.806317 3.008513 3.403515
v -0.006730 -0.025114 0.100000 0.749020 0.749020 0.749020
vn 0.000000 3.114717 3.403386
v 0.000000 -0.026000 0.100000 0.749020 0.749020 0.749020
vn 1.557636 2.697272 3.403355
v -0.013000 -0.022516 0.100000 0.749020 0.749020 0.749020
vn 0.806318 3.008514 -3.403515
v -0.006730 -0.025114 0.000000 0.749020 0.749020 0.749020
vn 1.557635 2.697271 -3.403355
v -0.013000 -0.022516 0.000000 0.749020 0.749020 0.749020
vn 2.697271 1.557635 -3.403355
v -0.022516 -0.013000 0.000000 0.749020 0.749020 0.749020
vn 2.202461 2.202461 -3.403226
v -0.018384 -0.018384 0.000000 0.749020 0.749020 0.749020
vn 2.202460 2.202460 3.403226
v -0.018384 -0.018384 0.100000 0.749020 0.749020 0.749020
vn 3.008513 0.806317 3.403515
v -0.025114 -0.006730 0.100000 0.749020 0.749020 0.749020
vn 3.008514 0.806318 -3.403516
v -0.025114 -0.006730 0.000000 0.749020 0.749020 0.749020
vn 3.114717 0.000000 3.403386
v -0.026000 0.000000 0.100000 0.749020 0.749020 0.749020
vn 3.008513 -0.806317 -3.403516
v -0.025114 0.006730 0.000000 0.749020 0.749020 0.749020
vn 2.697272 -1.557636 -3.403355
v -0.022516 0.013000 0.000000 0.749020 0.749020 0.749020
vn 3.008597 0.806121 2.879816
v -0.130400 -0.034940 0.100000 0.749020 0.749020 0.749020
vn 3.008596 -0.806121 2.879816
v -0.130400 0.034940 0.100000 0.749020 0.749020 0.749020
vn 2.697445 1.557315 2.879783
v -0.116914 -0.067500 0.100000 0.749020 0.749020 0.749020
vn 2.697446 -1.557315 2.879783
v -0.116914 0.067500 0.100000 0.749020 0.749020 0.749020
vn 2.202434 2.202434 2.879773
v -0.095460 -0.095460 0.100000 0.749020 0.749020 0.749020
vn 1.557315 2.697446 2.879783
v -0.067500 -0.116914 0.100000 0.749020 0.749020 0.749020
vn 0.806121 3.008597 2.879817
v -0.034940 -0.130400 0.100000 0.749020 0.749020 0.749020
vn 2.697272 1.557636 3.403355
v -0.022516 -0.013000 0.100000 0.749020 0.749020 0.749020
vn -0.000000 3.114715 2.879786
v 0.000000 -0.135000 0.100000 0.749020 0.749020 0.749020
vn -0.806121 3.008596 2.879813
v 0.034940 -0.130400 0.100000 0.749020 0.749020 0.749020
vn -2.202461 2.202461 3.403226
v 0.018384 -0.018384 0.100000 0.749020 0.749020 0.749020
vn -2.697271 1.557635 3.403355
v 0.022516 -0.013000 0.100000 0.749020 0.749020 0.749020
vn -3.008514 0.806318 3.403515
v 0.025114 -0.006730 0.100000 0.749020 0.749020 0.749020
vn 3.008514 -0.806318 3.403515
v -0.025114 0.006730 0.100000 0.749020 0.749020 0.749020
vn 0.000000 -3.114715 2.879786
v 0.000000 0.135000 0.100000 0.749020 0.749020 0.749020
vn 2.697271 -1.557635 3.403355
v -0.022516 0.013000 0.100000 0.749020 0.749020 0.749020
vn 2.202461 -2.202461 3.403226
v -0.018384 0.018384 0.100000 0.749020 0.749020 0.749020
vn 1.557635 -2.697271 3.403355
v -0.013000 0.022516 0.100000 0.749020 0.749020 0.749020
vn 0.806318 -3.008514 3.403515
v -0.006730 0.025114 0.100000 0.749020 0.749020 0.749020
vn -0.806317 -3.008513 3.403515
v 0.006730 0.025114 0.100000 0.749020 0.749020 0.749020
vn -0.806121 -3.008597 2.879813
v 0.034940 0.130400 0.100000 0.749020 0.749020 0.749020
vn -1.557315 -2.697446 2.879783
v 0.067500 0.116914 0.100000 0.749020 0.749020 0.749020
vn -2.202434 2.202434 2.879772
v 0.095460 -0.095460 0.100000 0.749020 0.749020 0.749020
vn -2.697446 1.557315 2.879783
v 0.116914 -0.067500 0.100000 0.749020 0.749020 0.749020
vn -3.008581 0.806149 2.879778
v -0.241482 0.064704 0.700000 0.749020 0.749020 0.749020
vn -2.697408 -1.557383 2.879791
v -0.216506 -0.125000 0.700000 0.749020 0.749020 0.749020
vn -1.557383 -2.697408 2.879793
v -0.125000 -0.216506 0.700000 0.749020 0.749020 0.749020
vn 3.114715 0.000000 3.403396
v -0.135000 0.000000 0.700000 0.749020 0.749020 0.749020
vn -0.806149 -3.008581 2.879777
v -0.064704 -0.241482 0.700000 0.749020 0.749020 0.749020
vn 2.202434 2.202434 3.403413
v -0.095460 -0.095460 0.700000 0.749020 0.749020 0.749020
vn 1.557315 2.697446 3.403402
v -0.067500 -0.116914 0.700000 0.749020 0.749020 0.749020
vn 0.000000 3.114715 3.403396
v 0.000000 -0.135000 0.700000 0.749020 0.749020 0.749020
vn 0.806149 -3.008581 2.879778
v 0.064704 -0.241482 0.700000 0.749020 0.749020 0.749020
vn 2.202439 -2.202439 2.879813
v 0.176776 -0.176776 0.700000 0.749020 0.749020 0.749020
vn 3.008597 -0.806121 3.403369
v -0.130400 0.034940 0.700000 0.749020 0.749020 0.749020
vn -1.557383 2.697408 2.879794
v -0.125000 0.216506 0.700000 0.749020 0.749020 0.749020
vn 2.697445 -1.557315 3.403403
v -0.116914 0.067500 0.700000 0.749020 0.749020 0.749020
vn 0.806121 -3.008597 3.403369
v -0.034940 0.130400 0.700000 0.749020 0.749020 0.749020
vn -0.000000 3.114719 2.879807
v 0.000000 0.250000 0.700000 0.749020 0.749020 0.749020
vn -2.202434 -2.202434 3.403413
v 0.095460 0.095460 0.700000 0.749020 0.749020 0.749020
vn 1.557383 2.697408 2.879792
v 0.125000 0.216506 0.700000 0.749020 0.749020 0.749020
vn -3.008596 -0.806121 3.403370
v 0.130400 0.034940 0.700000 0.749020 0.749020 0.749020
vn -3.114715 -0.000000 3.403395
v 0.135000 0.000000 0.700000 0.749020 0.749020 0.749020
vn 2.697408 -1.557383 2.879791
v 0.216506 -0.125000 0.700000 0.749020 0.749020 0.749020
vn 3.008581 0.806149 2.879778
v 0.241482 0.064704 0.700000 0.749020 0.749020 0.749020
vn 3.114715 -0.000000 2.879790
v -0.135000 0.000000 0.100000 0.749020 0.749020 0.749020
vn 2.202434 -2.202434 3.403413
v -0.095460 0.095460 0.700000 0.749020 0.749020 0.749020
vn 1.557315 -2.697445 3.403402
v -0.067500 0.116914 0.700000 0.749020 0.749020 0.749020
vn 2.202434 -2.202434 2.879772
v -0.095460 0.095460 0.100000 0.749020 0.749020 0.749020
vn 1.557315 -2.697446 2.879783
v -0.067500 0.116914 0.100000 0.749020 0.749020 0.749020
vn 0.806121 -3.008596 2.879816
v -0.034940 0.130400 0.100000 0.749020 0.749020 0.749020
vn -0.806121 -3.008596 3.403369
v 0.034940 0.130400 0.700000 0.749020 0.749020 0.749020
vn -0.000000 -3.114715 3.403396
v 0.000000 0.135000 0.700000 0.749020 0.749020 0.749020
vn -1.557315 -2.697446 3.403402
v 0.067500 0.116914 0.700000 0.749020 0.749020 0.749020
vn -2.202434 -2.202434 2.879772
v 0.095460 0.095460 0.100000 0.749020 0.749020 0.749020
vn -3.008597 -0.806121 2.879816
v 0.130400 0.034940 0.100000 0.749020 0.749020 0.749020
vn -2.697446 -1.557315 3.403402
v 0.116914 0.067500 0.700000 0.749020 0.749020 0.749020
vn -2.697445 -1.557315 2.879783
v 0.116914 0.067500 0.100000 0.749020 0.749020 0.749020
vn -3.114715 0.000000 2.879790
v 0.135000 0.000000 0.100000 0.749020 0.749020 0.749020
vn -3.008597 0.806121 3.403370
v 0.130400 -0.034940 0.700000 0.749020 0.749020 0.749020
vn -3.008596 0.806121 2.879816
v 0.130400 -0.034940 0.100000 0.749020 0.749020 0.749020
vn -2.697446 1.557315 3.403402
v 0.116914 -0.067500 0.700000 0.749020 0.749020 0.749020
vn -1.557315 2.697446 2.879783
v 0.067500 -0.116914 0.100000 0.749020 0.749020 0.749020
vn -1.557315 2.697445 3.403402
v 0.067500 -0.116914 0.700000 0.749020 0.749020 0.749020
vn -2.202434 2.202434 3.403413
v 0.095460 -0.095460 0.700000 0.749020 0.749020 0.749020
vn -0.806121 3.008597 3.403369
v 0.034940 -0.130400 0.700000 0.749020 0.749020 0.749020
vn 0.806121 3.008596 3.403369
v -0.034940 -0.130400 0.700000 0.749020 0.749020 0.749020
vn 2.697446 1.557315 3.403403
v -0.116914 -0.067500 0.700000 0.749020 0.749020 0.749020
vn 3.008596 0.806121 3.403369
v -0.130400 -0.034940 0.700000 0.749020 0.749020 0.749020
# 144 vertices, 0 vertices normals

f 1//1 2//2 4//4
f 2//2 1//1 120//120
f 4//4 3//3 46//46
f 3//3 4//4 2//2
f 46//46 119//119 5//5
f 119//119 46//46 3//3
f 5//5 109//109 43//43
f 109//109 5//5 119//119
f 109//109 42//42 43//43
f 42//42 109//109 6//6
f 6//6 41//41 42//42
f 41//41 6//6 108//108
f 108//108 37//37 41//41
f 37//37 108//108 7//7
f 7//7 36//36 37//37
f 36//36 7//7 104//104
f 104//104 35//35 36//36
f 35//35 104//104 102//102
f 102//102 8//8 35//35
f 8//8 102//102 9//9
f 101//101 8//8 9//9
f 8//8 101//101 10//10
f 11//11 10//10 101//101
f 10//10 11//11 12//12
f 13//13 12//12 11//11
f 12//12 13//13 14//14
f 100//100 14//14 13//13
f 14//14 100//100 15//15
f 16//16 15//15 100//100
f 15//15 16//16 17//17
f 18//18 17//17 16//16
f 17//17 18//18 34//34
f 18//18 20//20 34//34
f 20//20 18//18 111//111
f 111//111 19//19 20//20
f 19//19 111//111 21//21
f 21//21 27//27 19//19
f 27//27 21//21 114//114
f 114//114 30//30 27//27
f 30//30 114//114 22//22
f 22//22 23//23 30//30
f 23//23 22//22 116//116
f 116//116 44//44 23//23
f 44//44 116//116 25//25
f 44//44 24//24 45//45
f 24//24 44//44 25//25
f 45//45 120//120 1//1
f 120//120 45//45 24//24
f 27//27 26//26 19//19
f 26//26 27//27 74//74
f 74//74 27//27 75//75
f 75//75 27//27 47//47
f 47//47 27//27 28//28
f 28//28 27//27 48//48
f 48//48 27//27 29//29
f 29//29 27//27 30//30
f 29//29 30//30 50//50
f 50//50 30//30 31//31
f 31//31 30//30 53//53
f 53//53 30//30 32//32
f 32//32 30//30 33//33
f 33//33 30//30 56//56
f 15//15 12//12 14//14
f 12//12 15//15 17//17
f 12//12 17//17 10//10
f 10//10 17//17 34//34
f 10//10 34//34 8//8
f 8//8 34//34 20//20
f 8//8 20//20 35//35
f 35//35 20//20 36//36
f 36//36 20//20 19//19
f 36//36 19//19 37//37
f 37//37 19//19 26//26
f 37//37 26//26 72//72
f 37//37 72//72 68//68
f 37//37 68//68 69//69
f 37//37 69//69 67//67
f 37//37 67//67 66//66
f 37//37 66//66 61//61
f 37//37 61//61 62//62
f 37//37 62//62 41//41
f 41//41 62//62 38//38
f 41//41 38//38 39//39
f 41//41 39//39 58//58
f 41//41 58//58 40//40
f 41//41 40//40 56//56
f 41//41 56//56 30//30
f 41//41 30//30 23//23
f 41//41 23//23 42//42
f 42//42 23//23 43//43
f 43//43 23//23 44//44
f 43//43 44//44 45//45
f 43//43 45//45 5//5
f 5//5 45//45 1//1
f 5//5 1//1 46//46
f 46//46 1//1 4//4
f 93//93 47//47 28//28
f 47//47 93//93 92//92
f 94//94 28//28 48//48
f 28//28 94//94 93//93
f 49//49 48//48 29//29
f 48//48 49//49 94//94
f 95//95 29//29 50//50
f 29//29 95//95 49//49
f 51//51 50//50 31//31
f 50//50 51//51 95//95
f 52//52 31//31 53//53
f 31//31 52//52 51//51
f 52//52 32//32 55//55
f 32//32 52//52 53//53
f 55//55 33//33 54//54
f 33//33 55//55 32//32
f 54//54 56//56 57//57
f 56//56 54//54 33//33
f 57//57 40//40 88//88
f 40//40 57//57 56//56
f 88//88 58//58 87//87
f 58//58 88//88 40//40
f 87//87 39//39 86//86
f 39//39 87//87 58//58
f 59//59 39//39 38//38
f 39//39 59//59 86//86
f 60//60 38//38 62//62
f 38//38 60//60 59//59
f 64//64 62//62 61//61
f 62//62 64//64 60//60
f 63//63 61//61 66//66
f 61//61 63//63 64//64
f 65//65 66//66 67//67
f 66//66 65//65 63//63
f 70//70 67//67 69//69
f 67//67 70//70 65//65
f 68//68 70//70 69//69
f 70//70 68//68 83//83
f 72//72 83//83 68//68
f 83//83 72//72 71//71
f 26//26 71//71 72//72
f 71//71 26//26 73//73
f 74//74 73//73 26//26
f 73//73 74//74 89//89
f 75//75 89//89 74//74
f 89//89 75//75 91//91
f 47//47 91//91 75//75
f 91//91 47//47 92//92
f 76//76 77//77 121//121
f 77//77 76//76 78//78
f 77//77 78//78 79//79
f 79//79 78//78 124//124
f 124//124 78//78 80//80
f 124//124 80//80 81//81
f 124//124 81//81 125//125
f 125//125 81//81 82//82
f 125//125 82//82 126//126
f 126//126 82//82 73//73
f 73//73 82//82 71//71
f 71//71 82//82 84//84
f 71//71 84//84 83//83
f 83//83 84//84 70//70
f 70//70 84//84 65//65
f 65//65 84//84 63//63
f 63//63 84//84 64//64
f 64//64 84//84 85//85
f 64//64 85//85 60//60
f 60//60 85//85 59//59
f 59//59 85//85 86//86
f 86//86 85//85 87//87
f 87//87 85//85 88//88
f 88//88 85//85 57//57
f 126//126 89//89 90//90
f 89//89 126//126 73//73
f 90//90 89//89 91//91
f 90//90 91//91 92//92
f 90//90 92//92 93//93
f 90//90 93//93 94//94
f 90//90 94//94 49//49
f 90//90 49//49 95//95
f 90//90 95//95 96//96
f 96//96 95//95 51//51
f 96//96 51//51 52//52
f 96//96 52//52 55//55
f 96//96 55//55 54//54
f 96//96 54//54 57//57
f 96//96 57//57 85//85
f 96//96 85//85 138//138
f 96//96 138//138 97//97
f 97//97 138//138 98//98
f 97//97 98//98 130//130
f 130//130 98//98 99//99
f 130//130 99//99 133//133
f 133//133 99//99 131//131
f 131//131 99//99 136//136
f 131//131 136//136 134//134
f 11//11 100//100 13//13
f 100//100 11//11 101//101
f 100//100 101//101 16//16
f 16//16 101//101 9//9
f 16//16 9//9 18//18
f 18//18 9//9 102//102
f 18//18 102//102 103//103
f 103//103 102//102 144//144
f 144//144 102//102 143//143
f 143//143 102//102 104//104
f 143//143 104//104 105//105
f 105//105 104//104 106//106
f 106//106 104//104 142//142
f 142//142 104//104 7//7
f 142//142 7//7 107//107
f 107//107 7//7 108//108
f 107//107 108//108 141//141
f 141//141 108//108 139//139
f 139//139 108//108 6//6
f 139//139 6//6 140//140
f 140//140 6//6 137//137
f 137//137 6//6 135//135
f 135//135 6//6 109//109
f 135//135 109//109 118//118
f 103//103 111//111 18//18
f 111//111 103//103 110//110
f 111//111 110//110 112//112
f 111//111 112//112 21//21
f 21//21 112//112 122//122
f 21//21 122//122 123//123
f 21//21 123//123 113//113
f 21//21 113//113 114//114
f 114//114 113//113 128//128
f 114//114 128//128 127//127
f 114//114 127//127 22//22
f 22//22 127//127 129//129
f 22//22 129//129 116//116
f 116//116 129//129 115//115
f 116//116 115//115 132//132
f 116//116 132//132 117//117
f 116//116 117//117 25//25
f 25//25 117//117 118//118
f 25//25 118//118 109//109
f 25//25 109//109 119//119
f 25//25 119//119 24//24
f 24//24 119//119 3//3
f 24//24 3//3 120//120
f 120//120 3//3 2//2
f 121//121 144//144 76//76
f 144//144 121//121 103//103
f 77//77 103//103 121//121
f 103//103 77//77 110//110
f 79//79 110//110 77//77
f 110//110 79//79 112//112
f 124//124 112//112 79//79
f 112//112 124//124 122//122
f 123//123 124//124 125//125
f 124//124 123//123 122//122
f 113//113 125//125 126//126
f 125//125 113//113 123//123
f 128//128 126//126 90//90
f 126//126 128//128 113//113
f 127//127 90//90 96//96
f 90//90 127//127 128//128
f 129//129 96//96 97//97
f 96//96 129//129 127//127
f 115//115 97//97 130//130
f 97//97 115//115 129//129
f 115//115 133//133 132//132
f 133//133 115//115 130//130
f 132//132 131//131 117//117
f 131//131 132//132 133//133
f 117//117 134//134 118//118
f 134//134 117//117 131//131
f 118//118 136//136 135//135
f 136//136 118//118 134//134
f 135//135 99//99 137//137
f 99//99 135//135 136//136
f 137//137 98//98 140//140
f 98//98 137//137 99//99
f 139//139 98//98 138//138
f 98//98 139//139 140//140
f 141//141 138//138 85//85
f 138//138 141//141 139//139
f 107//107 85//85 84//84
f 85//85 107//107 141//141
f 142//142 84//84 82//82
f 84//84 142//142 107//107
f 106//106 82//82 81//81
f 82//82 106//106 142//142
f 105//105 81//81 80//80
f 81//81 105//105 106//106
f 78//78 105//105 80//80
f 105//105 78//78 143//143
f 76//76 143//143 78//78
f 143//143 76//76 144//144
# 288 faces, 0 coords texture

# End of File